C:\Users\User\Desktop\Spring-rest-master\Spring-rest-master\src\main\java\domain\Order.java
C:\Users\User\Desktop\Spring-rest-master\Spring-rest-master\src\main\java\Main.java
C:\Users\User\Desktop\Spring-rest-master\Spring-rest-master\src\main\java\controller\OrderController.java
C:\Users\User\Desktop\Spring-rest-master\Spring-rest-master\src\main\java\config\AppConfiguration.java
C:\Users\User\Desktop\Spring-rest-master\Spring-rest-master\src\main\java\repository\OrderRepository.java
C:\Users\User\Desktop\Spring-rest-master\Spring-rest-master\src\main\java\service\OrderServiceImpl.java
C:\Users\User\Desktop\Spring-rest-master\Spring-rest-master\src\main\java\repository\OrderRepositoryImpl.java
C:\Users\User\Desktop\Spring-rest-master\Spring-rest-master\src\main\java\service\OrderService.java
